-----BEGIN PGP SIGNATURE-----
Version: GnuPG v1

iQEcBAABAgAGBQJaETa8AAoJEJLuBYNf0Ml/JxoH/3ecj7MG7iitXYsrqQBmEOhf
4qoIUZDO8FBYG1yIPU24488scJ+AE1y92jmXdaXhDgn3SGeJkkuHKRB/ofWo2DJm
thsSVyUsDWH3Kkqqc+lcqZKXyp3koqT5NVjjrPe6OwzciwX7ahWrXzXNwDTxLKns
e/lJIG7XnNB4iknm3aCOrawmbhS/EET9iJN9hBVT/TXdXe+ivR5s3+K+yyySMjzo
6zKakso+HxF30X3Mu2oGl89mdRYsCfhPj6o1Y4Pj8qZFHGghg1+YJILqG4sTUQ2L
Ma6C9kU5qKZwCxLOFGMHprcuQ98PyUZWOmTCqDjc6SblPIioL/hAfViNC+2/D0c=
=BAIt
-----END PGP SIGNATURE-----
